\relax 
\catcode `"\active 
\catcode `<\active 
\catcode `>\active 
\@nameuse{es@quoting}
\babel@aux{spanish}{}
\@writefile{toc}{\contentsline {chapter}{\numberline {1}Circunferencia}{3}}
\@writefile{lof}{\addvspace {10\p@ }}
\@writefile{lot}{\addvspace {10\p@ }}
\@writefile{toc}{\contentsline {paragraph}{Parametrizaci\IeC {\'o}n de la ecuaci\IeC {\'o}n de la circunferencia}{3}}
\@writefile{toc}{\contentsline {paragraph}{Parametrizaci\IeC {\'o}n y pol\IeC {\'\i }gono}{3}}
\@writefile{toc}{\contentsline {paragraph}{Obtener $\pi $}{3}}
\@writefile{toc}{\contentsline {paragraph}{Relaci\IeC {\'o}n factor $\pi $}{3}}
\@writefile{toc}{\contentsline {chapter}{\numberline {2}Cicloide}{5}}
\@writefile{lof}{\addvspace {10\p@ }}
\@writefile{lot}{\addvspace {10\p@ }}
\@writefile{toc}{\contentsline {paragraph}{Parametrizaci\IeC {\'o}n}{5}}
\@writefile{toc}{\contentsline {paragraph}{Ecuaci\IeC {\'o}n cartesiana}{5}}
\@writefile{toc}{\contentsline {paragraph}{Obtener $\pi $}{5}}
\@writefile{toc}{\contentsline {paragraph}{Relaci\IeC {\'o}n factor $\pi $}{5}}
\@writefile{toc}{\contentsline {chapter}{\numberline {3}An\IeC {\'a}lisis asint\IeC {\'o}tico}{7}}
\@writefile{lof}{\addvspace {10\p@ }}
\@writefile{lot}{\addvspace {10\p@ }}
\@writefile{toc}{\contentsline {paragraph}{Ordenes de crecimiento}{7}}
\@writefile{toc}{\contentsline {paragraph}{Medida emp\IeC {\'\i }rica del rendimiento}{7}}
\@writefile{toc}{\contentsline {paragraph}{Algoritmo divide y vencer\IeC {\'a}s}{7}}
\@writefile{toc}{\contentsline {chapter}{\numberline {4}Teorema integral de Fourier}{9}}
\@writefile{lof}{\addvspace {10\p@ }}
\@writefile{lot}{\addvspace {10\p@ }}
\@writefile{toc}{\contentsline {paragraph}{Transformaciones de Mellin}{9}}
\@writefile{toc}{\contentsline {paragraph}{Operadores y su inversa}{9}}
\@writefile{toc}{\contentsline {paragraph}{Teorema 1}{9}}
\@writefile{toc}{\contentsline {paragraph}{Transformaci\IeC {\'o}n coseno de Fourier}{9}}
\@writefile{toc}{\contentsline {paragraph}{Teorema 2}{10}}
\@writefile{toc}{\contentsline {paragraph}{Teorema Integral de Fourier}{10}}
\@writefile{toc}{\contentsline {chapter}{\numberline {5}Transformada de Fourier}{11}}
\@writefile{lof}{\addvspace {10\p@ }}
\@writefile{lot}{\addvspace {10\p@ }}
\@writefile{toc}{\contentsline {chapter}{\numberline {6}FFT aplicada a polinomios}{13}}
\@writefile{lof}{\addvspace {10\p@ }}
\@writefile{lot}{\addvspace {10\p@ }}
\@writefile{toc}{\contentsline {section}{\numberline {6.1}Representaci\IeC {\'o}n del polinomio}{13}}
\@writefile{toc}{\contentsline {section}{\numberline {6.2}Divide y vencer\IeC {\'a}s}{14}}
\@writefile{toc}{\contentsline {subsection}{\numberline {6.2.1}Divide}{14}}
\@writefile{toc}{\contentsline {subsection}{\numberline {6.2.2}Primer an\IeC {\'a}lisis}{14}}
\@writefile{toc}{\contentsline {subsection}{\numberline {6.2.3}Segundo an\IeC {\'a}lisis}{15}}
\@writefile{toc}{\contentsline {subsubsection}{Analisis de la FFT y la convoluci\IeC {\'o}n}{15}}
\@writefile{toc}{\contentsline {subsection}{\numberline {6.2.4}Combinamos}{16}}
